{
	"parameters": [
		{
			"name": "BUSINESS_APPLICATION_NAME",
			"value": "kcim"
		},
		{
			"name": "APPLICATION_NAME",
			"value": "akci"
		},
		{
			"name": "APPLICATION_VERSION_NAME",
			"value": "cdd-akci-test"
		},
		{
			"name": "ADAPTIVE_TESTING_PLUGIN_NAME",
			"value": "C.A.T.S"
		},
		{
			"name": "ADAPTIVE_TESTING_PLUGIN_VERSION_NAME",
			"value": "1.5"
		},
		{
			"name": "ADAPTIVE_TESTING_TAGS",
			"value": "TV_REGBTTV222"
		},
		{
			"name": "TEST_SUITE_ENVIRONMENT",
			"value": "gotham"
		},
		{
			"name": "TEST_SUITE_NAME",
			"value": "CT-KCIM-BTTV"
		}
	], 
    "reference": {
        "fileName": "kcim_application_version_template.json",
        "fileSource": "kcim_template_filesource"
    }
}